Mini-Project #02: Identifying Environmentally Responsible US Public Transit Systems – Mini-Project #01
…
Show the code

most_efficient_medium <- agency_emissions_filtered |> 
  filter(agency_size == "Medium") |> 
  arrange(emissions_per_UPT) |> 
  top_n(-1, emissions_per_UPT)
most_efficient_medium

# A tibble: 62 × 8
# Groups:   Agency [62]
   Agency          State total_emissions total_UPT total_miles emissions_per_UPT
   <chr>           <chr>           <dbl>     <dbl>       <dbl>             <dbl>
 1 Ada County Hig… ID                  0    130715     5076885                 0
 2 Adirondack Tra… NY                  0    362745    31065245                 0
 3 Alaska Railroa… AK                  0    225434    27930710                 0
 4 Altoona Metro … PA                  0    444716     1614732                 0
 5 Anne Arundel C… MD                  0    299714     2304500                 0
 6 Audubon Area C… KY                  0    132537     2512446                 0
 7 Augusta Richmo… GA                  0    423982     1726132                 0
 8 Baldwin County… AL                  0    101576     1077003                 0
 9 Bay County Tra… FL                  0    398400     2792272                 0
10 Bay Metropolit… MI                  0    290244     2107127                 0
# ℹ 52 more rows
# ℹ 2 more variables: emissions_per_mile <dbl>, agency_size <chr>

Show the code

most_efficient_large <- agency_emissions_filtered |> 
  filter(agency_size == "Large") |> 
  arrange(emissions_per_UPT) |> 
  top_n(-1, emissions_per_UPT)

most_efficient_large

# A tibble: 233 × 8
# Groups:   Agency [233]
   Agency          State total_emissions total_UPT total_miles emissions_per_UPT
   <chr>           <chr>           <dbl>     <dbl>       <dbl>             <dbl>
 1 Academy Lines,… NJ                  0   1064165    44972754                 0
 2 Alternativa de… PR                  0   3732115    15671639                 0
 3 Ann Arbor Area… MI                  0  18722260    94480960                 0
 4 Arlington Coun… VA                  0   2097034     5273946                 0
 5 Athens-Clarke … GA                  0   1186787     4197292                 0
 6 Atlanta-Region… GA                  0   1690548    55477910                 0
 7 Beaver County … PA                  0    923424     7243688                 0
 8 Ben Franklin T… WA                  0   9535131    72976146                 0
 9 Berkshire Regi… MA                  0   1019928     6109646                 0
10 Birmingham-Jef… AL                  0   5387286    27996114                 0
# ℹ 223 more rows
# ℹ 2 more variables: emissions_per_mile <dbl>, agency_size <chr>

Awards

1. Greenest Transit Agency (lowest emissions per UPT) Award: This award is based on the agency with the lowest emissions per UPT, emphasizing efficiency in reducing emissions per passenger.

Show the code

greenest_agency <- agency_emissions_filtered |> 
  arrange(emissions_per_UPT) |> 
  top_n(-1, emissions_per_UPT)  
greenest_agency

# A tibble: 301 × 8
# Groups:   Agency [301]
   Agency          State total_emissions total_UPT total_miles emissions_per_UPT
   <chr>           <chr>           <dbl>     <dbl>       <dbl>             <dbl>
 1 Academy Lines,… NJ                  0   1064165    44972754                 0
 2 Ada County Hig… ID                  0    130715     5076885                 0
 3 Adirondack Tra… NY                  0    362745    31065245                 0
 4 Alaska Railroa… AK                  0    225434    27930710                 0
 5 Alternativa de… PR                  0   3732115    15671639                 0
 6 Altoona Metro … PA                  0    444716     1614732                 0
 7 Ann Arbor Area… MI                  0  18722260    94480960                 0
 8 Anne Arundel C… MD                  0    299714     2304500                 0
 9 Arlington Coun… VA                  0   2097034     5273946                 0
10 Athens-Clarke … GA                  0   1186787     4197292                 0
# ℹ 291 more rows
# ℹ 2 more variables: emissions_per_mile <dbl>, agency_size <chr>
…
# Calculate avoided emissions
agency_emissions_filtered <- agency_emissions_filtered |> 
  mutate(
    emissions_from_driving = total_miles * driving_emissions_per_mile,  # Emissions from driving (kg CO2)
    emissions_avoided = emissions_from_driving - total_emissions  # Emissions avoided by using transit
  )

# Most emissions avoided
most_emissions_avoided <- agency_emissions_filtered |> 
  arrange(desc(emissions_avoided)) |> 
  top_n(1, emissions_avoided) 

most_emissions_avoided# Agency with the highest emissions avoided

# A tibble: 301 × 10
# Groups:   Agency [301]
   Agency          State total_emissions total_UPT total_miles emissions_per_UPT
   <chr>           <chr>           <dbl>     <dbl>       <dbl>             <dbl>
 1 MTA New York C… NY           9591254.   1.32e10 47956268290          0.000729
 2 New Jersey Tra… NJ           2314384.   1.19e 9 13886304042          0.00194 
 3 Massachusetts … MA           2206835.   1.64e 9  7723923361          0.00134 
 4 Southeastern P… PA           3339238.   1.18e 9  5008856910          0.00282 
 5 Metro-North Co… NY                 0    2.00e 8  3452684793          0       
 6 County of Miam… FL            828258.   4.68e 8  2484773868          0.00177 
 7 Chicago Transi… IL           1090678.   5.58e 8  2181355256          0.00195 
 8 MTA Long Islan… NY                 0    8.38e 7  2033685836          0       
 9 Metropolitan A… GA            704232.   2.48e 8  1408463824          0.00284 
10 Washington Met… DC                 0    2.31e 8   912604948          0       
# ℹ 291 more rows
# ℹ 4 more variables: emissions_per_mile <dbl>, agency_size <chr>,
#   emissions_from_driving <dbl>, emissions_avoided <dbl>
…
# Calculate the percentage of electric fuel usage
agency_emissions_filtered <- agency_emissions_filtered |> 
  mutate(
    electrification_percentage = total_electric_fuel / total_fuel * 100
  )

# Find the agency with the highest electrification percentage
highest_electrification <- agency_emissions_filtered |> 
  arrange(desc(electrification_percentage)) |> 
  slice(1)  # Get the top agency
highest_electrification

# A tibble: 301 × 15
# Groups:   Agency [301]
   Agency          State total_emissions total_UPT total_miles emissions_per_UPT
   <chr>           <chr>           <dbl>     <dbl>       <dbl>             <dbl>
 1 Academy Lines,… NJ                  0   1064165    44972754                 0
 2 Ada County Hig… ID                  0    130715     5076885                 0
 3 Adirondack Tra… NY                  0    362745    31065245                 0
 4 Alaska Railroa… AK                  0    225434    27930710                 0
 5 Alternativa de… PR                  0   3732115    15671639                 0
 6 Altoona Metro … PA                  0    444716     1614732                 0
 7 Ann Arbor Area… MI                  0  18722260    94480960                 0
 8 Anne Arundel C… MD                  0    299714     2304500                 0
 9 Arlington Coun… VA                  0   2097034     5273946                 0
10 Athens-Clarke … GA                  0   1186787     4197292                 0
# ℹ 291 more rows
# ℹ 9 more variables: emissions_per_mile <dbl>, agency_size <chr>,
#   emissions_from_driving <dbl>, emissions_avoided <dbl>,
#   `Electric Battery` <dbl>, `Electric Propulsion` <dbl>,
#   total_electric_fuel <dbl>, total_fuel <dbl>,
#   electrification_percentage <dbl>

4. Worst Agency Award: The agency with the highest emissions per UPT is highlighted here, providing insights into areas for improvement.

Show the code

# Task 4: Worst Of Award (high emissions per UPT)
worst_agency <- agency_emissions_filtered |> 
  arrange(desc(emissions_per_UPT)) |> 
  top_n(1, emissions_per_UPT)  # Agency with the highest emissions per UPT
worst_agency

# A tibble: 470 × 15
# Groups:   Agency [301]
   Agency          State total_emissions total_UPT total_miles emissions_per_UPT
   <chr>           <chr>           <dbl>     <dbl>       <dbl>             <dbl>
 1 Pennsylvania D… PA             33974.    530252    33974346           0.0641 
 2 JAUNT, Inc.     VA              7301.    480470     4867008           0.0152 
 3 JAUNT, Inc.     VA              7301.    480470     4867008           0.0152 
 4 Port Authority… NJ             47005.   5451983    47004510           0.00862
 5 Ride Connectio… OR              2684.    328226     1789168           0.00818
 6 Ride Connectio… OR              2684.    328226     1789168           0.00818
 7 Port Authority… NY            268405.  55108860   268404831           0.00487
 8 Central Florid… FL            333055.  73672880   444073564           0.00452
 9 Central Florid… FL            333055.  73672880   444073564           0.00452
10 Central Florid… FL            333055.  73672880   444073564           0.00452
# ℹ 460 more rows
# ℹ 9 more variables: emissions_per_mile <dbl>, agency_size <chr>,
#   emissions_from_driving <dbl>, emissions_avoided <dbl>,
#   `Electric Battery` <dbl>, `Electric Propulsion` <dbl>,
#   total_electric_fuel <dbl>, total_fuel <dbl>,
#   electrification_percentage <dbl>
…
