Mini-Project #03: Creating the Ultimate Playlist – Mini-Project #01
…
Distinct artists: 9754 

*Top Tracks: Calculated the top 50 most frequently appearing tracks across playlists.

Show the code

top_tracks <- tidy_tracks |>
  group_by(track_name, artist_name) |>
  summarise(count = n(), .groups = "drop") |>
  arrange(desc(count)) |>
  slice_head(n = 50)

top_tracks

# A tibble: 50 × 3
   track_name                  artist_name      count
   <chr>                       <chr>            <int>
 1 One Dance                   Drake               55
 2 HUMBLE.                     Kendrick Lamar      52
 3 Broccoli (feat. Lil Yachty) DRAM                50
 4 Closer                      The Chainsmokers    46
 5 Congratulations             Post Malone         44
 6 Don't Let Me Down           The Chainsmokers    42
 7 Bounce Back                 Big Sean            39
 8 Jumpman                     Drake               39
 9 Roses                       The Chainsmokers    39
10 iSpy (feat. Lil Yachty)     KYLE                39
# ℹ 40 more rows
…
